{"frames": {

"commander-the-magnate":
{
	"frame": {"x":4,"y":4,"w":300,"h":420},
	"rotated": true,
	"trimmed": false,
	"spriteSourceSize": {"x":0,"y":0,"w":300,"h":420},
	"sourceSize": {"w":300,"h":420}
},
"dwarf-elite-axeman":
{
	"frame": {"x":428,"y":4,"w":300,"h":420},
	"rotated": true,
	"trimmed": false,
	"spriteSourceSize": {"x":0,"y":0,"w":300,"h":420},
	"sourceSize": {"w":300,"h":420}
},
"dwarf-elite-crossbowman":
{
	"frame": {"x":852,"y":4,"w":300,"h":420},
	"rotated": true,
	"trimmed": false,
	"spriteSourceSize": {"x":0,"y":0,"w":300,"h":420},
	"sourceSize": {"w":300,"h":420}
},
"dwarf-elite-maceman":
{
	"frame": {"x":1276,"y":4,"w":300,"h":420},
	"rotated": true,
	"trimmed": false,
	"spriteSourceSize": {"x":0,"y":0,"w":300,"h":420},
	"sourceSize": {"w":300,"h":420}
},
"dwarf-elite-spearman":
{
	"frame": {"x":1700,"y":4,"w":300,"h":420},
	"rotated": false,
	"trimmed": false,
	"spriteSourceSize": {"x":0,"y":0,"w":300,"h":420},
	"sourceSize": {"w":300,"h":420}
},
"dwarf-elite-swordsman":
{
	"frame": {"x":4,"y":308,"w":300,"h":420},
	"rotated": true,
	"trimmed": false,
	"spriteSourceSize": {"x":0,"y":0,"w":300,"h":420},
	"sourceSize": {"w":300,"h":420}
},
"dwarf-regular-axeman":
{
	"frame": {"x":428,"y":308,"w":300,"h":420},
	"rotated": true,
	"trimmed": false,
	"spriteSourceSize": {"x":0,"y":0,"w":300,"h":420},
	"sourceSize": {"w":300,"h":420}
},
"dwarf-regular-crossbowman":
{
	"frame": {"x":852,"y":308,"w":300,"h":420},
	"rotated": true,
	"trimmed": false,
	"spriteSourceSize": {"x":0,"y":0,"w":300,"h":420},
	"sourceSize": {"w":300,"h":420}
},
"dwarf-regular-maceman":
{
	"frame": {"x":1276,"y":308,"w":300,"h":420},
	"rotated": true,
	"trimmed": false,
	"spriteSourceSize": {"x":0,"y":0,"w":300,"h":420},
	"sourceSize": {"w":300,"h":420}
},
"dwarf-regular-spearman":
{
	"frame": {"x":1700,"y":428,"w":300,"h":420},
	"rotated": false,
	"trimmed": false,
	"spriteSourceSize": {"x":0,"y":0,"w":300,"h":420},
	"sourceSize": {"w":300,"h":420}
},
"dwarf-regular-swordsman":
{
	"frame": {"x":4,"y":612,"w":300,"h":420},
	"rotated": true,
	"trimmed": false,
	"spriteSourceSize": {"x":0,"y":0,"w":300,"h":420},
	"sourceSize": {"w":300,"h":420}
},
"dwarf-rookie-axeman":
{
	"frame": {"x":428,"y":612,"w":300,"h":420},
	"rotated": true,
	"trimmed": false,
	"spriteSourceSize": {"x":0,"y":0,"w":300,"h":420},
	"sourceSize": {"w":300,"h":420}
},
"dwarf-rookie-crossbowman":
{
	"frame": {"x":852,"y":612,"w":300,"h":420},
	"rotated": true,
	"trimmed": false,
	"spriteSourceSize": {"x":0,"y":0,"w":300,"h":420},
	"sourceSize": {"w":300,"h":420}
},
"dwarf-rookie-maceman":
{
	"frame": {"x":1276,"y":612,"w":300,"h":420},
	"rotated": true,
	"trimmed": false,
	"spriteSourceSize": {"x":0,"y":0,"w":300,"h":420},
	"sourceSize": {"w":300,"h":420}
},
"dwarf-rookie-spearman":
{
	"frame": {"x":1700,"y":852,"w":300,"h":420},
	"rotated": false,
	"trimmed": false,
	"spriteSourceSize": {"x":0,"y":0,"w":300,"h":420},
	"sourceSize": {"w":300,"h":420}
},
"dwarf-rookie-swordsman":
{
	"frame": {"x":4,"y":916,"w":300,"h":420},
	"rotated": true,
	"trimmed": false,
	"spriteSourceSize": {"x":0,"y":0,"w":300,"h":420},
	"sourceSize": {"w":300,"h":420}
},
"dwarf-veteran-axeman":
{
	"frame": {"x":428,"y":916,"w":300,"h":420},
	"rotated": true,
	"trimmed": false,
	"spriteSourceSize": {"x":0,"y":0,"w":300,"h":420},
	"sourceSize": {"w":300,"h":420}
},
"dwarf-veteran-crossbowman":
{
	"frame": {"x":852,"y":916,"w":300,"h":420},
	"rotated": true,
	"trimmed": false,
	"spriteSourceSize": {"x":0,"y":0,"w":300,"h":420},
	"sourceSize": {"w":300,"h":420}
},
"dwarf-veteran-maceman":
{
	"frame": {"x":1276,"y":916,"w":300,"h":420},
	"rotated": true,
	"trimmed": false,
	"spriteSourceSize": {"x":0,"y":0,"w":300,"h":420},
	"sourceSize": {"w":300,"h":420}
},
"dwarf-veteran-spearman":
{
	"frame": {"x":4,"y":1220,"w":300,"h":420},
	"rotated": true,
	"trimmed": false,
	"spriteSourceSize": {"x":0,"y":0,"w":300,"h":420},
	"sourceSize": {"w":300,"h":420}
},
"dwarf-veteran-swordsman":
{
	"frame": {"x":428,"y":1220,"w":300,"h":420},
	"rotated": true,
	"trimmed": false,
	"spriteSourceSize": {"x":0,"y":0,"w":300,"h":420},
	"sourceSize": {"w":300,"h":420}
},
"elf-elite-slingman":
{
	"frame": {"x":852,"y":1220,"w":300,"h":420},
	"rotated": true,
	"trimmed": false,
	"spriteSourceSize": {"x":0,"y":0,"w":300,"h":420},
	"sourceSize": {"w":300,"h":420}
},
"elf-elite-spearman":
{
	"frame": {"x":1276,"y":1220,"w":300,"h":420},
	"rotated": true,
	"trimmed": false,
	"spriteSourceSize": {"x":0,"y":0,"w":300,"h":420},
	"sourceSize": {"w":300,"h":420}
},
"elf-elite-swordsman":
{
	"frame": {"x":1700,"y":1276,"w":300,"h":420},
	"rotated": false,
	"trimmed": false,
	"spriteSourceSize": {"x":0,"y":0,"w":300,"h":420},
	"sourceSize": {"w":300,"h":420}
},
"elf-regular-slingman":
{
	"frame": {"x":4,"y":1524,"w":300,"h":420},
	"rotated": true,
	"trimmed": false,
	"spriteSourceSize": {"x":0,"y":0,"w":300,"h":420},
	"sourceSize": {"w":300,"h":420}
},
"elf-regular-spearman":
{
	"frame": {"x":428,"y":1524,"w":300,"h":420},
	"rotated": true,
	"trimmed": false,
	"spriteSourceSize": {"x":0,"y":0,"w":300,"h":420},
	"sourceSize": {"w":300,"h":420}
},
"elf-regular-swordsman":
{
	"frame": {"x":852,"y":1524,"w":300,"h":420},
	"rotated": true,
	"trimmed": false,
	"spriteSourceSize": {"x":0,"y":0,"w":300,"h":420},
	"sourceSize": {"w":300,"h":420}
},
"elf-rookie-slingman":
{
	"frame": {"x":1276,"y":1524,"w":300,"h":420},
	"rotated": true,
	"trimmed": false,
	"spriteSourceSize": {"x":0,"y":0,"w":300,"h":420},
	"sourceSize": {"w":300,"h":420}
},
"elf-rookie-spearman":
{
	"frame": {"x":1700,"y":1700,"w":300,"h":420},
	"rotated": false,
	"trimmed": false,
	"spriteSourceSize": {"x":0,"y":0,"w":300,"h":420},
	"sourceSize": {"w":300,"h":420}
},
"elf-rookie-swordsman":
{
	"frame": {"x":4,"y":1828,"w":300,"h":420},
	"rotated": true,
	"trimmed": false,
	"spriteSourceSize": {"x":0,"y":0,"w":300,"h":420},
	"sourceSize": {"w":300,"h":420}
},
"elf-veteran-slingman":
{
	"frame": {"x":428,"y":1828,"w":300,"h":420},
	"rotated": true,
	"trimmed": false,
	"spriteSourceSize": {"x":0,"y":0,"w":300,"h":420},
	"sourceSize": {"w":300,"h":420}
},
"elf-veteran-spearman":
{
	"frame": {"x":852,"y":1828,"w":300,"h":420},
	"rotated": true,
	"trimmed": false,
	"spriteSourceSize": {"x":0,"y":0,"w":300,"h":420},
	"sourceSize": {"w":300,"h":420}
},
"elf-veteran-swordsman":
{
	"frame": {"x":1276,"y":1828,"w":300,"h":420},
	"rotated": true,
	"trimmed": false,
	"spriteSourceSize": {"x":0,"y":0,"w":300,"h":420},
	"sourceSize": {"w":300,"h":420}
}},
"meta": {
	"app": "https://www.codeandweb.com/texturepacker",
	"version": "1.1",
	"image": "sprite-sheet-4.webp",
	"format": "RGBA8888",
	"size": {"w":2048,"h":4096},
	"scale": "1",
	"related_multi_packs": [ "sprite-sheet-3.json", "sprite-sheet-5.json" ],
	"smartupdate": "$TexturePacker:SmartUpdate:3a7ee67e046c04bc436881117010fb17:0aa0761269dd83aa38d8f8f98414c681:cb24789e41c6baa9b6bf5718f49f9e1d$"
}
}
