{"frames": {

"card-back":
{
	"frame": {"x":1508,"y":1088,"w":240,"h":336},
	"rotated": true,
	"trimmed": false,
	"spriteSourceSize": {"x":0,"y":0,"w":240,"h":336},
	"sourceSize": {"w":240,"h":336}
},
"card-front":
{
	"frame": {"x":1508,"y":1332,"w":240,"h":336},
	"rotated": true,
	"trimmed": false,
	"spriteSourceSize": {"x":0,"y":0,"w":240,"h":336},
	"sourceSize": {"w":240,"h":336}
},
"card-slots-body":
{
	"frame": {"x":1508,"y":1576,"w":240,"h":336},
	"rotated": true,
	"trimmed": false,
	"spriteSourceSize": {"x":0,"y":0,"w":240,"h":336},
	"sourceSize": {"w":240,"h":336}
},
"dummy-background":
{
	"frame": {"x":4,"y":4,"w":1920,"h":1080},
	"rotated": false,
	"trimmed": false,
	"spriteSourceSize": {"x":0,"y":0,"w":1920,"h":1080},
	"sourceSize": {"w":1920,"h":1080}
},
"engagement-zone":
{
	"frame": {"x":1508,"y":1820,"w":240,"h":336},
	"rotated": true,
	"trimmed": false,
	"spriteSourceSize": {"x":0,"y":0,"w":240,"h":336},
	"sourceSize": {"w":240,"h":336}
},
"opening-screen":
{
	"frame": {"x":4,"y":1088,"w":1500,"h":750},
	"rotated": false,
	"trimmed": false,
	"spriteSourceSize": {"x":0,"y":0,"w":1500,"h":750},
	"sourceSize": {"w":1500,"h":750}
},
"the-field":
{
	"frame": {"x":4,"y":1842,"w":630,"h":900},
	"rotated": true,
	"trimmed": false,
	"spriteSourceSize": {"x":0,"y":0,"w":630,"h":900},
	"sourceSize": {"w":630,"h":900}
},
"the-pool":
{
	"frame": {"x":908,"y":2064,"w":630,"h":900},
	"rotated": true,
	"trimmed": false,
	"spriteSourceSize": {"x":0,"y":0,"w":630,"h":900},
	"sourceSize": {"w":630,"h":900}
}},
"meta": {
	"app": "https://www.codeandweb.com/texturepacker",
	"version": "1.1",
	"image": "sprite-sheet-1.webp",
	"format": "RGBA8888",
	"size": {"w":2048,"h":4096},
	"scale": "1",
	"smartupdate": "$TexturePacker:SmartUpdate:bd2d361d190cf57f447303312b4d170c:5115f45d899b368ca17812e002778657:68ca199899488ebe1884048454472435$"
}
}
